pstat131_project
…
5.

Create data sets county.winner and state.winner by taking the candidate with the highest proportion of votes in both county level and state level. Hint: to create county.winner, start with election.raw, group by county, compute total votes, and pct = votes/total as the proportion of votes. Then choose the highest row using top_n (variable state.winner is similar).

## # A tibble: 2,720 x 7
## # Groups:   county [2,718]
##    state                county               candidate party  votes  total   pct
##    <chr>                <chr>                <fct>     <fct>  <dbl>  <dbl> <dbl>
##  1 Delaware             New Castle           Joe Biden DEM   194238 287047 0.677
##  2 Delaware             Sussex               Donald T~ REP    71196 202727 0.351
##  3 District of Columbia District of Columbia Joe Biden DEM    29509  31260 0.944
##  4 District of Columbia Ward 2               Joe Biden DEM    24247  27259 0.890
##  5 District of Columbia Ward 3               Joe Biden DEM    33584  37377 0.899
##  6 District of Columbia Ward 4               Joe Biden DEM    35117  37223 0.943
##  7 District of Columbia Ward 5               Joe Biden DEM    36585  38778 0.943
##  8 District of Columbia Ward 6               Joe Biden DEM    44699  49394 0.905
##  9 District of Columbia Ward 7               Joe Biden DEM    30253  31823 0.951
## 10 District of Columbia Ward 8               Joe Biden DEM    24567  26038 0.944
## # ... with 2,710 more rows

## # A tibble: 51 x 5
## # Groups:   state [51]
##    state                candidate      votes    total   pct
##    <chr>                <fct>          <dbl>    <dbl> <dbl>
##  1 Alabama              Donald Trump 1434159  2309900 0.621
##  2 Alaska               Donald Trump   80999   131885 0.614
##  3 Arizona              Joe Biden    1643664  3322535 0.495
##  4 Arkansas             Donald Trump  761251  1216818 0.626
##  5 California           Joe Biden    9315259 14414296 0.646
##  6 Colorado             Joe Biden    1753416  3173127 0.553
##  7 Connecticut          Joe Biden    1059252  1786557 0.593
##  8 Delaware             Joe Biden     295413   502384 0.588
##  9 District of Columbia Joe Biden     258561   279152 0.926
## 10 Florida              Donald Trump 5667834 11075706 0.512
## # ... with 41 more rows
…
census.clean.id

## # A tibble: 3,220 x 25
##    CountyId TotalPop   Men Women White VotingAgeCitizen Income Poverty
##       <dbl>    <dbl> <dbl> <dbl> <dbl>            <dbl>  <dbl>   <dbl>
##  1     1001    55036  48.9  51.1  75.4             74.5  55317    13.7
##  2     1003   203360  48.9  51.1  83.1             76.4  52562    11.8
##  3     1005    26201  53.3  46.7  45.7             77.4  33368    27.2
##  4     1007    22580  54.3  45.7  74.6             78.2  43404    15.2
##  5     1009    57667  49.4  50.6  87.4             73.7  47412    15.6
##  6     1011    10478  53.6  46.4  21.6             78.4  29655    28.5
##  7     1013    20126  46.8  53.2  52.2             76.8  36326    24.4
##  8     1015   115527  48.1  51.9  72.7             76.5  43686    18.6
##  9     1017    33895  48.1  51.9  56.2             77.5  37342    18.8
## 10     1019    25855  49.7  50.3  91.8             79.8  40041    16.1
## # ... with 3,210 more rows, and 17 more variables: ChildPoverty <dbl>,
## #   Professional <dbl>, Service <dbl>, Office <dbl>, Production <dbl>,
## #   Drive <dbl>, Carpool <dbl>, Transit <dbl>, OtherTransp <dbl>,
## #   WorkAtHome <dbl>, MeanCommute <dbl>, Employed <dbl>, PrivateWork <dbl>,
## #   SelfEmployed <dbl>, FamilyWork <dbl>, Unemployment <dbl>, Minority <dbl>
…
#Second cluster, 10 total, normal parameters
census.clustinfo[census.clustinfo$cluster_10_norm == '2',]

## # A tibble: 87 x 31
##    CountyId State      County TotalPop   Men Women White VotingAgeCitizen Income
##       <dbl> <chr>      <chr>     <dbl> <dbl> <dbl> <dbl>            <dbl>  <dbl>
##  1     1073 Alabama    Jeffe~   659460  47.4  52.6  50.4             74.5  49321
##  2     6053 California Monte~   433168  51.0  49.0  30.6             53.5  63249
##  3     6077 California San J~   724153  49.7  50.3  33.2             61.1  57813
##  4     6081 California San M~   763450  49.3  50.7  39.9             64.8 105667
##  5     6083 California Santa~   442996  50.1  49.9  45.3             63.4  68023
##  6     6095 California Solano   434981  49.7  50.3  39               69.5  72950
##  7     6097 California Sonoma   500943  49.0  51.0  63.8             70.9  71769
##  8     6099 California Stani~   535684  49.4  50.6  43.4             61.8  54260
##  9     6107 California Tulare   458809  50.0  50.0  29.5             54.4  44871
## 10     8001 Colorado   Adams    487850  50.4  49.6  51.1             62.8  64087
## # ... with 77 more rows, and 22 more variables: Poverty <dbl>,
## #   ChildPoverty <dbl>, Professional <dbl>, Service <dbl>, Office <dbl>,
## #   Production <dbl>, Drive <dbl>, Carpool <dbl>, Transit <dbl>,
## #   OtherTransp <dbl>, WorkAtHome <dbl>, MeanCommute <dbl>, Employed <dbl>,
## #   PrivateWork <dbl>, SelfEmployed <dbl>, FamilyWork <dbl>,
## #   Unemployment <dbl>, Minority <dbl>, cluster_10_norm <int>,
## #   cluster_2_norm <int>, cluster_10_pc <int>, cluster_2_pc <int>

#first cluster, 2 total, normal parameters
census.clustinfo[census.clustinfo$cluster_2_norm == '1',]

## # A tibble: 3,219 x 31
##    CountyId State   County   TotalPop   Men Women White VotingAgeCitizen Income
##       <dbl> <chr>   <chr>       <dbl> <dbl> <dbl> <dbl>            <dbl>  <dbl>
##  1     1001 Alabama Autauga     55036  48.9  51.1  75.4             74.5  55317
##  2     1003 Alabama Baldwin    203360  48.9  51.1  83.1             76.4  52562
##  3     1005 Alabama Barbour     26201  53.3  46.7  45.7             77.4  33368
##  4     1007 Alabama Bibb        22580  54.3  45.7  74.6             78.2  43404
##  5     1009 Alabama Blount      57667  49.4  50.6  87.4             73.7  47412
##  6     1011 Alabama Bullock     10478  53.6  46.4  21.6             78.4  29655
##  7     1013 Alabama Butler      20126  46.8  53.2  52.2             76.8  36326
##  8     1015 Alabama Calhoun    115527  48.1  51.9  72.7             76.5  43686
##  9     1017 Alabama Chambers    33895  48.1  51.9  56.2             77.5  37342
## 10     1019 Alabama Cherokee    25855  49.7  50.3  91.8             79.8  40041
## # ... with 3,209 more rows, and 22 more variables: Poverty <dbl>,
## #   ChildPoverty <dbl>, Professional <dbl>, Service <dbl>, Office <dbl>,
## #   Production <dbl>, Drive <dbl>, Carpool <dbl>, Transit <dbl>,
## #   OtherTransp <dbl>, WorkAtHome <dbl>, MeanCommute <dbl>, Employed <dbl>,
## #   PrivateWork <dbl>, SelfEmployed <dbl>, FamilyWork <dbl>,
## #   Unemployment <dbl>, Minority <dbl>, cluster_10_norm <int>,
## #   cluster_2_norm <int>, cluster_10_pc <int>, cluster_2_pc <int>

#Second cluster, normal parameters
census.clustinfo[census.clustinfo$cluster_10_pc == '2',]

## # A tibble: 140 x 31
##    CountyId State   County  TotalPop   Men Women White VotingAgeCitizen Income
##       <dbl> <chr>   <chr>      <dbl> <dbl> <dbl> <dbl>            <dbl>  <dbl>
##  1     1005 Alabama Barbour    26201  53.3  46.7  45.7             77.4  33368
##  2     1011 Alabama Bullock    10478  53.6  46.4  21.6             78.4  29655
##  3     1047 Alabama Dallas     40755  46.2  53.8  27.7             74.4  30065
##  4     1063 Alabama Greene      8533  47.6  52.4  17.1             76.6  20954
##  5     1085 Alabama Lowndes    10362  47.2  52.8  24.3             76.9  29785
##  6     1087 Alabama Macon      19358  46.1  53.9  15.5             81.4  32308
##  7     1099 Alabama Monroe     21745  47.6  52.4  54.5             76.6  26036
##  8     1105 Alabama Perry       9680  47.8  52.2  29.4             77.4  22973
##  9     1119 Alabama Sumter     13084  46.1  53.9  24.6             78.1  21663
## 10     1131 Alabama Wilcox     10919  46.7  53.3  26.9             75.3  27012
## # ... with 130 more rows, and 22 more variables: Poverty <dbl>,
## #   ChildPoverty <dbl>, Professional <dbl>, Service <dbl>, Office <dbl>,
## #   Production <dbl>, Drive <dbl>, Carpool <dbl>, Transit <dbl>,
## #   OtherTransp <dbl>, WorkAtHome <dbl>, MeanCommute <dbl>, Employed <dbl>,
## #   PrivateWork <dbl>, SelfEmployed <dbl>, FamilyWork <dbl>,
## #   Unemployment <dbl>, Minority <dbl>, cluster_10_norm <int>,
## #   cluster_2_norm <int>, cluster_10_pc <int>, cluster_2_pc <int>

#First Cluster, normal parameters
census.clustinfo[census.clustinfo$cluster_2_pc == '1',]

## # A tibble: 3,135 x 31
##    CountyId State   County   TotalPop   Men Women White VotingAgeCitizen Income
##       <dbl> <chr>   <chr>       <dbl> <dbl> <dbl> <dbl>            <dbl>  <dbl>
##  1     1001 Alabama Autauga     55036  48.9  51.1  75.4             74.5  55317
##  2     1003 Alabama Baldwin    203360  48.9  51.1  83.1             76.4  52562
##  3     1005 Alabama Barbour     26201  53.3  46.7  45.7             77.4  33368
##  4     1007 Alabama Bibb        22580  54.3  45.7  74.6             78.2  43404
##  5     1009 Alabama Blount      57667  49.4  50.6  87.4             73.7  47412
##  6     1011 Alabama Bullock     10478  53.6  46.4  21.6             78.4  29655
##  7     1013 Alabama Butler      20126  46.8  53.2  52.2             76.8  36326
##  8     1015 Alabama Calhoun    115527  48.1  51.9  72.7             76.5  43686
##  9     1017 Alabama Chambers    33895  48.1  51.9  56.2             77.5  37342
## 10     1019 Alabama Cherokee    25855  49.7  50.3  91.8             79.8  40041
## # ... with 3,125 more rows, and 22 more variables: Poverty <dbl>,
## #   ChildPoverty <dbl>, Professional <dbl>, Service <dbl>, Office <dbl>,
## #   Production <dbl>, Drive <dbl>, Carpool <dbl>, Transit <dbl>,
## #   OtherTransp <dbl>, WorkAtHome <dbl>, MeanCommute <dbl>, Employed <dbl>,
## #   PrivateWork <dbl>, SelfEmployed <dbl>, FamilyWork <dbl>,
## #   Unemployment <dbl>, Minority <dbl>, cluster_10_norm <int>,
## #   cluster_2_norm <int>, cluster_10_pc <int>, cluster_2_pc <int>
…
It doesnt seem like the ridge model faired better than our lasso approach. Lets stick with the lasso model to see how well it did in its total predictions.

#create a single vector of lasso predictions
lasso.pred <- c(lasso.pred.tr,lasso.pred.te)
typeof(lasso.pred)

## [1] "double"

#remerge the train and test datasets, assign a column of predicted votes for our lasso predictions
election.reg <- rbind(election.tr,election.te)
election.reg['votes_pred'] <- lasso.pred
election.reg

## # A tibble: 3,222 x 32
##    state          county     candidate votes CountyId TotalPop   Men Women White
##    <chr>          <chr>      <fct>     <dbl>    <dbl>    <dbl> <dbl> <dbl> <dbl>
##  1 georgia        paulding   Joe Biden 29658    13223   152399  48.9  51.1  73  
##  2 north carolina alleghany  Donald T~  4501    37005    10935  49.8  50.2  87.3
##  3 louisiana      pointe co~ Donald T~  7503    22077    22271  48.0  52.0  60.4
##  4 tennessee      stewart    Donald T~  4942    47161    13248  49.7  50.3  92  
##  5 wisconsin      iowa       Joe Biden  7828    55049    23576  50.3  49.7  95.6
##  6 minnesota      blue earth Donald T~ 16721    27013    65767  50.3  49.7  88.9
##  7 arizona        yuma       Joe Biden 31562     4027   204281  51.4  48.6  31.8
##  8 illinois       bond       Donald T~  5612    17005    17034  51.5  48.5  87.8
##  9 virginia       halifax    Donald T~ 10404    51083    35030  47.1  52.9  59.8
## 10 iowa           humboldt   Joe Biden  1442    19091     9586  48.7  51.3  94  
## # ... with 3,212 more rows, and 23 more variables: VotingAgeCitizen <dbl>,
## #   Income <dbl>, Poverty <dbl>, ChildPoverty <dbl>, Professional <dbl>,
## #   Service <dbl>, Office <dbl>, Production <dbl>, Drive <dbl>, Carpool <dbl>,
## #   Transit <dbl>, OtherTransp <dbl>, WorkAtHome <dbl>, MeanCommute <dbl>,
## #   Employed <dbl>, PrivateWork <dbl>, SelfEmployed <dbl>, FamilyWork <dbl>,
## #   Unemployment <dbl>, Minority <dbl>, biden <dbl>, trump <dbl>,
## #   votes_pred <dbl>
#Similar to the initial analysis, create dataframes of predicted county and state values
election.reg.county <- election.reg
election.reg.state <- election.reg %>% group_by(state,candidate) %>% summarise(votes_pred=sum(votes_pred))

## `summarise()` has grouped output by 'state'. You can override using the `.groups` argument.

#county.winner (predicted)
pred.county.winner <- election.reg.county %>% 
  group_by(county) %>% 
  mutate(total=sum(votes_pred)) %>%
  mutate(pct=votes_pred/total) %>%
  top_n(n=1, wt=pct)
pred.county.winner

## # A tibble: 1,097 x 34
## # Groups:   county [1,097]
##    state        county      candidate  votes CountyId TotalPop   Men Women White
##    <chr>        <chr>       <fct>      <dbl>    <dbl>    <dbl> <dbl> <dbl> <dbl>
##  1 louisiana    pointe cou~ Donald Tr~  7503    22077    22271  48.0  52.0  60.4
##  2 tennessee    stewart     Donald Tr~  4942    47161    13248  49.7  50.3  92  
##  3 minnesota    blue earth  Donald Tr~ 16721    27013    65767  50.3  49.7  88.9
##  4 illinois     bond        Donald Tr~  5612    17005    17034  51.5  48.5  87.8
##  5 virginia     halifax     Donald Tr~ 10404    51083    35030  47.1  52.9  59.8
##  6 colorado     gilpin      Donald Tr~  1815     8047     5793  53.7  46.3  86.2
##  7 missouri     st. franco~ Donald Tr~ 20506    29187    66248  54.0  46.0  92  
##  8 arizona      yuma        Donald Tr~ 35766     4027   204281  51.4  48.6  31.8
##  9 virginia     waynesboro~ Donald Tr~  5507    51820    21620  48.3  51.7  77  
## 10 south dakota ziebach     Donald Tr~   404    46137     2837  50.1  49.9  23.4
## # ... with 1,087 more rows, and 25 more variables: VotingAgeCitizen <dbl>,
## #   Income <dbl>, Poverty <dbl>, ChildPoverty <dbl>, Professional <dbl>,
## #   Service <dbl>, Office <dbl>, Production <dbl>, Drive <dbl>, Carpool <dbl>,
## #   Transit <dbl>, OtherTransp <dbl>, WorkAtHome <dbl>, MeanCommute <dbl>,
## #   Employed <dbl>, PrivateWork <dbl>, SelfEmployed <dbl>, FamilyWork <dbl>,
## #   Unemployment <dbl>, Minority <dbl>, biden <dbl>, trump <dbl>,
## #   votes_pred <dbl>, total <dbl>, pct <dbl>

#state.winner (predicted)
pred.state.winner <- election.reg.state %>%
  group_by(state) %>%
  mutate(total=sum(votes_pred)) %>%
  mutate(pct=votes_pred/total) %>%
  top_n(n=1, wt=pct)
pred.state.winner

## # A tibble: 48 x 5
## # Groups:   state [48]
##    state                candidate    votes_pred    total   pct
##    <chr>                <fct>             <dbl>    <dbl> <dbl>
##  1 alabama              Donald Trump    884653. 1672996. 0.529
##  2 arizona              Donald Trump    210580.  408674. 0.515
##  3 arkansas             Donald Trump    412609.  757444. 0.545
##  4 california           Donald Trump   2009653. 3976501. 0.505
##  5 colorado             Donald Trump    754902. 1456299. 0.518
##  6 connecticut          Donald Trump    373474.  741597. 0.504
##  7 delaware             Donald Trump     40077.   78370. 0.511
##  8 district of columbia Donald Trump    108506.  215228. 0.504
##  9 florida              Donald Trump   1891620. 3722601. 0.508
## 10 georgia              Donald Trump   1330555. 2530913. 0.526
## # ... with 38 more rows
…
The shapiro wilks test still rejects the null hyothesis. At this point, my knowledge on the subject has ran its course. Theres a case to consider outliers and high leverage data, there are noticable outliers and possible high leverage data that we can observe from our plots and would likely find in further analysis. However, there is no reason to assume the given data is incorrect, and so they should not be excluded from the data.

Im going to check the models predictions and see how it performed.

#Get our regression data, minus votes
election.reg.data <- data.frame(TotalPop,Professional,Service,Office,Transit,WorkAtHome,MeanCommute,PrivateWork,SelfEmployed)
#predict the data and add as a column to our original data frame.
reg.pred <- predict(reg.transform,election.reg.data)

election.reg$reg.pred <- reg.pred**(1/.22)
election.reg

## # A tibble: 3,222 x 33
##    state          county     candidate votes CountyId TotalPop   Men Women White
##    <chr>          <chr>      <fct>     <dbl>    <dbl>    <dbl> <dbl> <dbl> <dbl>
##  1 georgia        paulding   Joe Biden 29658    13223   152399  48.9  51.1  73  
##  2 north carolina alleghany  Donald T~  4501    37005    10935  49.8  50.2  87.3
##  3 louisiana      pointe co~ Donald T~  7503    22077    22271  48.0  52.0  60.4
##  4 tennessee      stewart    Donald T~  4942    47161    13248  49.7  50.3  92  
##  5 wisconsin      iowa       Joe Biden  7828    55049    23576  50.3  49.7  95.6
##  6 minnesota      blue earth Donald T~ 16721    27013    65767  50.3  49.7  88.9
##  7 arizona        yuma       Joe Biden 31562     4027   204281  51.4  48.6  31.8
##  8 illinois       bond       Donald T~  5612    17005    17034  51.5  48.5  87.8
##  9 virginia       halifax    Donald T~ 10404    51083    35030  47.1  52.9  59.8
## 10 iowa           humboldt   Joe Biden  1442    19091     9586  48.7  51.3  94  
## # ... with 3,212 more rows, and 24 more variables: VotingAgeCitizen <dbl>,
## #   Income <dbl>, Poverty <dbl>, ChildPoverty <dbl>, Professional <dbl>,
## #   Service <dbl>, Office <dbl>, Production <dbl>, Drive <dbl>, Carpool <dbl>,
## #   Transit <dbl>, OtherTransp <dbl>, WorkAtHome <dbl>, MeanCommute <dbl>,
## #   Employed <dbl>, PrivateWork <dbl>, SelfEmployed <dbl>, FamilyWork <dbl>,
## #   Unemployment <dbl>, Minority <dbl>, biden <dbl>, trump <dbl>,
## #   votes_pred <dbl>, reg.pred <dbl>
#Similar to the initial analysis and regularized regression models, create dataframes of predicted county and state values
election.reg.county <- election.reg
election.reg.state <- election.reg %>% group_by(state,candidate) %>% summarise(reg.pred=sum(reg.pred))

## `summarise()` has grouped output by 'state'. You can override using the `.groups` argument.

#county.winner (predicted)
pred.county.winner <- election.reg.county %>% 
  group_by(county) %>% 
  mutate(total=sum(reg.pred)) %>%
  mutate(pct=reg.pred/total) %>%
  top_n(n=1, wt=pct)
pred.county.winner

## # A tibble: 2,194 x 35
## # Groups:   county [1,097]
##    state        county      candidate  votes CountyId TotalPop   Men Women White
##    <chr>        <chr>       <fct>      <dbl>    <dbl>    <dbl> <dbl> <dbl> <dbl>
##  1 georgia      paulding    Joe Biden  29658    13223   152399  48.9  51.1  73  
##  2 louisiana    pointe cou~ Donald Tr~  7503    22077    22271  48.0  52.0  60.4
##  3 tennessee    stewart     Donald Tr~  4942    47161    13248  49.7  50.3  92  
##  4 wisconsin    iowa        Joe Biden   7828    55049    23576  50.3  49.7  95.6
##  5 minnesota    blue earth  Donald Tr~ 16721    27013    65767  50.3  49.7  88.9
##  6 arizona      yuma        Joe Biden  31562     4027   204281  51.4  48.6  31.8
##  7 illinois     bond        Donald Tr~  5612    17005    17034  51.5  48.5  87.8
##  8 virginia     halifax     Donald Tr~ 10404    51083    35030  47.1  52.9  59.8
##  9 colorado     gilpin      Donald Tr~  1815     8047     5793  53.7  46.3  86.2
## 10 pennsylvania clearfield  Joe Biden   9598    42033    80539  52.1  47.9  93.1
## # ... with 2,184 more rows, and 26 more variables: VotingAgeCitizen <dbl>,
## #   Income <dbl>, Poverty <dbl>, ChildPoverty <dbl>, Professional <dbl>,
## #   Service <dbl>, Office <dbl>, Production <dbl>, Drive <dbl>, Carpool <dbl>,
## #   Transit <dbl>, OtherTransp <dbl>, WorkAtHome <dbl>, MeanCommute <dbl>,
## #   Employed <dbl>, PrivateWork <dbl>, SelfEmployed <dbl>, FamilyWork <dbl>,
## #   Unemployment <dbl>, Minority <dbl>, biden <dbl>, trump <dbl>,
## #   votes_pred <dbl>, reg.pred <dbl>, total <dbl>, pct <dbl>
…
